<svg width="0" height="0" class="hidden">
  <symbol version="1.1" xmlns="http://www.w3.org/2000/svg" xmlns:xlink="http://www.w3.org/1999/xlink" viewBox="0 0 1200 86" id="border-bottom-video-desktop">
    <title>mask-background-1200-690-bottom</title>
    <desc>Created with Sketch.</desc>
    <defs>
      <path d="M91.0221632,-584 L1108.97784,-584 C1123.24214,-584 1128.41472,-582.51479 1133.62953,-579.725877 C1138.84435,-576.936963 1142.93696,-572.844346 1145.72588,-567.629531 C1148.51479,-562.414716 1150,-557.242137 1150,-542.977837 L1150,-25.0221632 C1150,-10.7578634 1148.51479,-5.58528356 1145.72588,-0.370468743 C1142.93696,4.84434607 1138.84435,8.93696326 1133.62953,11.7258767 C1128.41472,14.5147902 1123.24214,16 1108.97784,16 L91.0221632,16 C76.7578634,16 71.5852836,14.5147902 66.3704687,11.7258767 C61.1556539,8.93696326 57.0630367,4.84434607 54.2741233,-0.370468743 C51.4852098,-5.58528356 50,-10.7578634 50,-25.0221632 L50,-542.977837 C50,-557.242137 51.4852098,-562.414716 54.2741233,-567.629531 C57.0630367,-572.844346 61.1556539,-576.936963 66.3704687,-579.725877 C71.5852836,-582.51479 76.7578634,-584 91.0221632,-584 Z" id="path-1"></path>
      <filter x="-6.0%" y="-6.4%" width="111.5%" height="121.2%" filterUnits="objectBoundingBox" id="filter-2">
        <feMorphology radius="0.5" operator="dilate" in="SourceAlpha" result="shadowSpreadOuter1"></feMorphology>
        <feOffset dx="-2" dy="25" in="shadowSpreadOuter1" result="shadowOffsetOuter1"></feOffset>
        <feGaussianBlur stdDeviation="16.5" in="shadowOffsetOuter1" result="shadowBlurOuter1"></feGaussianBlur>
        <feComposite in="shadowBlurOuter1" in2="SourceAlpha" operator="out" result="shadowBlurOuter1"></feComposite>
        <feColorMatrix values="0 0 0 0 0   0 0 0 0 0   0 0 0 0 0  0 0 0 0.122707201 0" type="matrix" in="shadowBlurOuter1" result="shadowMatrixOuter1"></feColorMatrix>
        <feOffset dx="0" dy="1" in="SourceAlpha" result="shadowOffsetOuter2"></feOffset>
        <feGaussianBlur stdDeviation="3.5" in="shadowOffsetOuter2" result="shadowBlurOuter2"></feGaussianBlur>
        <feComposite in="shadowBlurOuter2" in2="SourceAlpha" operator="out" result="shadowBlurOuter2"></feComposite>
        <feColorMatrix values="0 0 0 0 0   0 0 0 0 0   0 0 0 0 0  0 0 0 0.138898324 0" type="matrix" in="shadowBlurOuter2" result="shadowMatrixOuter2"></feColorMatrix>
        <feMerge>
          <feMergeNode in="shadowMatrixOuter1"></feMergeNode>
          <feMergeNode in="shadowMatrixOuter2"></feMergeNode>
        </feMerge>
      </filter>
    </defs>
    <g id="mask-background-1200-690-bottom" stroke="none" stroke-width="1" fill="none" fill-rule="evenodd">
      <path d="M1200,-604 L1200,86 L0,86 L0,-604 L1200,-604 Z M1109.58362,-583.999091 L90.4163758,-583.999091 C76.6100667,-583.957299 71.5107862,-582.474949 66.3704687,-579.725877 C61.1556539,-576.936963 57.0630367,-572.844346 54.2741233,-567.629531 C51.4852098,-562.414716 50,-557.242137 50,-542.977837 L50.0009088,-24.4163758 C50.0427006,-10.6100667 51.5250514,-5.5107862 54.2741233,-0.370468743 C57.0630367,4.84434607 61.1556539,8.93696326 66.3704687,11.7258767 C71.5852836,14.5147902 76.7578634,16 91.0221632,16 L91.0221632,16 L1108.97784,16 C1123.24214,16 1128.41472,14.5147902 1133.62953,11.7258767 C1138.84435,8.93696326 1142.93696,4.84434607 1145.72588,-0.370468743 C1148.51479,-5.58528356 1150,-10.7578634 1150,-25.0221632 L1150,-25.0221632 L1150,-542.977837 C1150,-557.242137 1148.51479,-562.414716 1145.72588,-567.629531 C1142.93696,-572.844346 1138.84435,-576.936963 1133.62953,-579.725877 C1128.41472,-582.51479 1123.24214,-584 1108.97784,-584 Z" id="background" fill="#FFF0F7"></path>
      <g id="window">
        <use fill="black" fill-opacity="1" filter="url(#filter-2)" xlink:href="#path-1"></use>
        <use fill-opacity="0" fill="#FFFFFF" fill-rule="evenodd" xlink:href="#path-1"></use>
      </g>
    </g>
  </symbol>
  <symbol version="1.1" xmlns="http://www.w3.org/2000/svg" xmlns:xlink="http://www.w3.org/1999/xlink" viewBox="0 0 360 75" id="border-bottom-video-mobile">
    <title>mask-background-360-680-mobile-bottom</title>
    <desc>Created with Sketch.</desc>
    <defs>
      <rect id="path-1" x="20" y="18" width="320" height="612" rx="50"></rect>
      <filter x="-12.0%" y="-4.0%" width="124.1%" height="113.1%" filterUnits="objectBoundingBox" id="filter-2">
        <feOffset dx="0" dy="17" in="SourceAlpha" result="shadowOffsetOuter1"></feOffset>
        <feGaussianBlur stdDeviation="10" in="shadowOffsetOuter1" result="shadowBlurOuter1"></feGaussianBlur>
        <feComposite in="shadowBlurOuter1" in2="SourceAlpha" operator="out" result="shadowBlurOuter1"></feComposite>
        <feColorMatrix values="0 0 0 0 0   0 0 0 0 0   0 0 0 0 0  0 0 0 0.122707201 0" type="matrix" in="shadowBlurOuter1" result="shadowMatrixOuter1"></feColorMatrix>
        <feOffset dx="0" dy="1" in="SourceAlpha" result="shadowOffsetOuter2"></feOffset>
        <feGaussianBlur stdDeviation="3.5" in="shadowOffsetOuter2" result="shadowBlurOuter2"></feGaussianBlur>
        <feComposite in="shadowBlurOuter2" in2="SourceAlpha" operator="out" result="shadowBlurOuter2"></feComposite>
        <feColorMatrix values="0 0 0 0 0   0 0 0 0 0   0 0 0 0 0  0 0 0 0.138898324 0" type="matrix" in="shadowBlurOuter2" result="shadowMatrixOuter2"></feColorMatrix>
        <feMerge>
          <feMergeNode in="shadowMatrixOuter1"></feMergeNode>
          <feMergeNode in="shadowMatrixOuter2"></feMergeNode>
        </feMerge>
      </filter>
    </defs>
    <g id="mask-background-360-680-mobile-bottom" stroke="none" stroke-width="1" fill="none" fill-rule="evenodd">
      <g id="Group" transform="translate(0.000000, -605.000000)">
        <path d="M360,0 L360,680 L0,680 L0,0 L360,0 Z M290,18 L70,18 C42.3857625,18 20,40.3857625 20,68 L20,68 L20,580 C20,607.614237 42.3857625,630 70,630 L70,630 L290,630 C317.614237,630 340,607.614237 340,580 L340,580 L340,68 C340,40.3857625 317.614237,18 290,18 L290,18 Z" id="Combined-Shape" fill="#FFF0F7"></path>
        <g id="body-copy">
          <use fill="black" fill-opacity="1" filter="url(#filter-2)" xlink:href="#path-1"></use>
          <use fill-opacity="0" fill="#FFFFFF" fill-rule="evenodd" xlink:href="#path-1"></use>
        </g>
      </g>
    </g>
  </symbol>
  <symbol version="1.1" xmlns="http://www.w3.org/2000/svg" xmlns:xlink="http://www.w3.org/1999/xlink" viewBox="0 0 66 690" id="border-left-video-desktop">
    <title>mask-background-1200-690-left</title>
    <desc>Created with Sketch.</desc>
    <defs>
      <path d="M91.0221632,20 L1108.97784,20 C1123.24214,20 1128.41472,21.4852098 1133.62953,24.2741233 C1138.84435,27.0630367 1142.93696,31.1556539 1145.72588,36.3704687 C1148.51479,41.5852836 1150,46.7578634 1150,61.0221632 L1150,578.977837 C1150,593.242137 1148.51479,598.414716 1145.72588,603.629531 C1142.93696,608.844346 1138.84435,612.936963 1133.62953,615.725877 C1128.41472,618.51479 1123.24214,620 1108.97784,620 L91.0221632,620 C76.7578634,620 71.5852836,618.51479 66.3704687,615.725877 C61.1556539,612.936963 57.0630367,608.844346 54.2741233,603.629531 C51.4852098,598.414716 50,593.242137 50,578.977837 L50,61.0221632 C50,46.7578634 51.4852098,41.5852836 54.2741233,36.3704687 C57.0630367,31.1556539 61.1556539,27.0630367 66.3704687,24.2741233 C71.5852836,21.4852098 76.7578634,20 91.0221632,20 Z" id="path-1"></path>
      <filter x="-6.0%" y="-6.4%" width="111.5%" height="121.2%" filterUnits="objectBoundingBox" id="filter-2">
        <feMorphology radius="0.5" operator="dilate" in="SourceAlpha" result="shadowSpreadOuter1"></feMorphology>
        <feOffset dx="-2" dy="25" in="shadowSpreadOuter1" result="shadowOffsetOuter1"></feOffset>
        <feGaussianBlur stdDeviation="16.5" in="shadowOffsetOuter1" result="shadowBlurOuter1"></feGaussianBlur>
        <feComposite in="shadowBlurOuter1" in2="SourceAlpha" operator="out" result="shadowBlurOuter1"></feComposite>
        <feColorMatrix values="0 0 0 0 0   0 0 0 0 0   0 0 0 0 0  0 0 0 0.122707201 0" type="matrix" in="shadowBlurOuter1" result="shadowMatrixOuter1"></feColorMatrix>
        <feOffset dx="0" dy="1" in="SourceAlpha" result="shadowOffsetOuter2"></feOffset>
        <feGaussianBlur stdDeviation="3.5" in="shadowOffsetOuter2" result="shadowBlurOuter2"></feGaussianBlur>
        <feComposite in="shadowBlurOuter2" in2="SourceAlpha" operator="out" result="shadowBlurOuter2"></feComposite>
        <feColorMatrix values="0 0 0 0 0   0 0 0 0 0   0 0 0 0 0  0 0 0 0.138898324 0" type="matrix" in="shadowBlurOuter2" result="shadowMatrixOuter2"></feColorMatrix>
        <feMerge>
          <feMergeNode in="shadowMatrixOuter1"></feMergeNode>
          <feMergeNode in="shadowMatrixOuter2"></feMergeNode>
        </feMerge>
      </filter>
    </defs>
    <g id="mask-background-1200-690-left" stroke="none" stroke-width="1" fill="none" fill-rule="evenodd">
      <path d="M1200,0 L1200,690 L0,690 L0,0 L1200,0 Z M1109.58362,20.0009088 L90.4163758,20.0009088 C76.6100667,20.0427006 71.5107862,21.5250514 66.3704687,24.2741233 C61.1556539,27.0630367 57.0630367,31.1556539 54.2741233,36.3704687 C51.4852098,41.5852836 50,46.7578634 50,61.0221632 L50.0009088,579.583624 C50.0427006,593.389933 51.5250514,598.489214 54.2741233,603.629531 C57.0630367,608.844346 61.1556539,612.936963 66.3704687,615.725877 C71.5852836,618.51479 76.7578634,620 91.0221632,620 L91.0221632,620 L1108.97784,620 C1123.24214,620 1128.41472,618.51479 1133.62953,615.725877 C1138.84435,612.936963 1142.93696,608.844346 1145.72588,603.629531 C1148.51479,598.414716 1150,593.242137 1150,578.977837 L1150,578.977837 L1150,61.0221632 C1150,46.7578634 1148.51479,41.5852836 1145.72588,36.3704687 C1142.93696,31.1556539 1138.84435,27.0630367 1133.62953,24.2741233 C1128.41472,21.4852098 1123.24214,20 1108.97784,20 Z" id="background" fill="#FFF0F7"></path>
      <g id="window">
        <use fill="black" fill-opacity="1" filter="url(#filter-2)" xlink:href="#path-1"></use>
        <use fill-opacity="0" fill="#FFFFFF" fill-rule="evenodd" xlink:href="#path-1"></use>
      </g>
    </g>
  </symbol>
  <symbol version="1.1" xmlns="http://www.w3.org/2000/svg" xmlns:xlink="http://www.w3.org/1999/xlink" viewBox="0 0 45 680" id="border-left-video-mobile">
    <title>mask-background-360-680-mobile-left</title>
    <desc>Created with Sketch.</desc>
    <defs>
      <rect id="path-1" x="20" y="18" width="320" height="612" rx="50"></rect>
      <filter x="-12.0%" y="-4.0%" width="124.1%" height="113.1%" filterUnits="objectBoundingBox" id="filter-2">
        <feOffset dx="0" dy="17" in="SourceAlpha" result="shadowOffsetOuter1"></feOffset>
        <feGaussianBlur stdDeviation="10" in="shadowOffsetOuter1" result="shadowBlurOuter1"></feGaussianBlur>
        <feComposite in="shadowBlurOuter1" in2="SourceAlpha" operator="out" result="shadowBlurOuter1"></feComposite>
        <feColorMatrix values="0 0 0 0 0   0 0 0 0 0   0 0 0 0 0  0 0 0 0.122707201 0" type="matrix" in="shadowBlurOuter1" result="shadowMatrixOuter1"></feColorMatrix>
        <feOffset dx="0" dy="1" in="SourceAlpha" result="shadowOffsetOuter2"></feOffset>
        <feGaussianBlur stdDeviation="3.5" in="shadowOffsetOuter2" result="shadowBlurOuter2"></feGaussianBlur>
        <feComposite in="shadowBlurOuter2" in2="SourceAlpha" operator="out" result="shadowBlurOuter2"></feComposite>
        <feColorMatrix values="0 0 0 0 0   0 0 0 0 0   0 0 0 0 0  0 0 0 0.138898324 0" type="matrix" in="shadowBlurOuter2" result="shadowMatrixOuter2"></feColorMatrix>
        <feMerge>
          <feMergeNode in="shadowMatrixOuter1"></feMergeNode>
          <feMergeNode in="shadowMatrixOuter2"></feMergeNode>
        </feMerge>
      </filter>
    </defs>
    <g id="mask-background-360-680-mobile-left" stroke="none" stroke-width="1" fill="none" fill-rule="evenodd">
      <g id="Group">
        <path d="M360,0 L360,680 L0,680 L0,0 L360,0 Z M290,18 L70,18 C42.3857625,18 20,40.3857625 20,68 L20,68 L20,580 C20,607.614237 42.3857625,630 70,630 L70,630 L290,630 C317.614237,630 340,607.614237 340,580 L340,580 L340,68 C340,40.3857625 317.614237,18 290,18 L290,18 Z" id="Combined-Shape" fill="#FFF0F7"></path>
        <g id="body-copy">
          <use fill="black" fill-opacity="1" filter="url(#filter-2)" xlink:href="#path-1"></use>
          <use fill-opacity="0" fill="#FFFFFF" fill-rule="evenodd" xlink:href="#path-1"></use>
        </g>
      </g>
    </g>
  </symbol>
  <symbol version="1.1" xmlns="http://www.w3.org/2000/svg" xmlns:xlink="http://www.w3.org/1999/xlink" viewBox="0 0 1200 36" id="border-top-video-desktop">
    <title>mask-background-1200-690-top</title>
    <desc>Created with Sketch.</desc>
    <defs>
      <path d="M91.0221632,20 L1108.97784,20 C1123.24214,20 1128.41472,21.4852098 1133.62953,24.2741233 C1138.84435,27.0630367 1142.93696,31.1556539 1145.72588,36.3704687 C1148.51479,41.5852836 1150,46.7578634 1150,61.0221632 L1150,578.977837 C1150,593.242137 1148.51479,598.414716 1145.72588,603.629531 C1142.93696,608.844346 1138.84435,612.936963 1133.62953,615.725877 C1128.41472,618.51479 1123.24214,620 1108.97784,620 L91.0221632,620 C76.7578634,620 71.5852836,618.51479 66.3704687,615.725877 C61.1556539,612.936963 57.0630367,608.844346 54.2741233,603.629531 C51.4852098,598.414716 50,593.242137 50,578.977837 L50,61.0221632 C50,46.7578634 51.4852098,41.5852836 54.2741233,36.3704687 C57.0630367,31.1556539 61.1556539,27.0630367 66.3704687,24.2741233 C71.5852836,21.4852098 76.7578634,20 91.0221632,20 Z" id="path-1"></path>
      <filter x="-6.0%" y="-6.4%" width="111.5%" height="121.2%" filterUnits="objectBoundingBox" id="filter-2">
        <feMorphology radius="0.5" operator="dilate" in="SourceAlpha" result="shadowSpreadOuter1"></feMorphology>
        <feOffset dx="-2" dy="25" in="shadowSpreadOuter1" result="shadowOffsetOuter1"></feOffset>
        <feGaussianBlur stdDeviation="16.5" in="shadowOffsetOuter1" result="shadowBlurOuter1"></feGaussianBlur>
        <feComposite in="shadowBlurOuter1" in2="SourceAlpha" operator="out" result="shadowBlurOuter1"></feComposite>
        <feColorMatrix values="0 0 0 0 0   0 0 0 0 0   0 0 0 0 0  0 0 0 0.122707201 0" type="matrix" in="shadowBlurOuter1" result="shadowMatrixOuter1"></feColorMatrix>
        <feOffset dx="0" dy="1" in="SourceAlpha" result="shadowOffsetOuter2"></feOffset>
        <feGaussianBlur stdDeviation="3.5" in="shadowOffsetOuter2" result="shadowBlurOuter2"></feGaussianBlur>
        <feComposite in="shadowBlurOuter2" in2="SourceAlpha" operator="out" result="shadowBlurOuter2"></feComposite>
        <feColorMatrix values="0 0 0 0 0   0 0 0 0 0   0 0 0 0 0  0 0 0 0.138898324 0" type="matrix" in="shadowBlurOuter2" result="shadowMatrixOuter2"></feColorMatrix>
        <feMerge>
          <feMergeNode in="shadowMatrixOuter1"></feMergeNode>
          <feMergeNode in="shadowMatrixOuter2"></feMergeNode>
        </feMerge>
      </filter>
    </defs>
    <g id="mask-background-1200-690-top" stroke="none" stroke-width="1" fill="none" fill-rule="evenodd">
      <path d="M1200,0 L1200,690 L0,690 L0,0 L1200,0 Z M1109.58362,20.0009088 L90.4163758,20.0009088 C76.6100667,20.0427006 71.5107862,21.5250514 66.3704687,24.2741233 C61.1556539,27.0630367 57.0630367,31.1556539 54.2741233,36.3704687 C51.4852098,41.5852836 50,46.7578634 50,61.0221632 L50.0009088,579.583624 C50.0427006,593.389933 51.5250514,598.489214 54.2741233,603.629531 C57.0630367,608.844346 61.1556539,612.936963 66.3704687,615.725877 C71.5852836,618.51479 76.7578634,620 91.0221632,620 L91.0221632,620 L1108.97784,620 C1123.24214,620 1128.41472,618.51479 1133.62953,615.725877 C1138.84435,612.936963 1142.93696,608.844346 1145.72588,603.629531 C1148.51479,598.414716 1150,593.242137 1150,578.977837 L1150,578.977837 L1150,61.0221632 C1150,46.7578634 1148.51479,41.5852836 1145.72588,36.3704687 C1142.93696,31.1556539 1138.84435,27.0630367 1133.62953,24.2741233 C1128.41472,21.4852098 1123.24214,20 1108.97784,20 Z" id="background" fill="#FFF0F7"></path>
      <g id="window">
        <use fill="black" fill-opacity="1" filter="url(#filter-2)" xlink:href="#path-1"></use>
        <use fill-opacity="0" fill="#FFFFFF" fill-rule="evenodd" xlink:href="#path-1"></use>
      </g>
    </g>
  </symbol>
  <symbol version="1.1" xmlns="http://www.w3.org/2000/svg" xmlns:xlink="http://www.w3.org/1999/xlink" viewBox="0 0 66 690" id="border-right-video-desktop">
    <title>mask-background-1200-690-right</title>
    <desc>Created with Sketch.</desc>
    <defs>
      <path d="M-1042.97784,20 L-25.0221632,20 C-10.7578634,20 -5.58528356,21.4852098 -0.370468743,24.2741233 C4.84434607,27.0630367 8.93696326,31.1556539 11.7258767,36.3704687 C14.5147902,41.5852836 16,46.7578634 16,61.0221632 L16,578.977837 C16,593.242137 14.5147902,598.414716 11.7258767,603.629531 C8.93696326,608.844346 4.84434607,612.936963 -0.370468743,615.725877 C-5.58528356,618.51479 -10.7578634,620 -25.0221632,620 L-1042.97784,620 C-1057.24214,620 -1062.41472,618.51479 -1067.62953,615.725877 C-1072.84435,612.936963 -1076.93696,608.844346 -1079.72588,603.629531 C-1082.51479,598.414716 -1084,593.242137 -1084,578.977837 L-1084,61.0221632 C-1084,46.7578634 -1082.51479,41.5852836 -1079.72588,36.3704687 C-1076.93696,31.1556539 -1072.84435,27.0630367 -1067.62953,24.2741233 C-1062.41472,21.4852098 -1057.24214,20 -1042.97784,20 Z" id="path-1"></path>
      <filter x="-6.0%" y="-6.4%" width="111.5%" height="121.2%" filterUnits="objectBoundingBox" id="filter-2">
        <feMorphology radius="0.5" operator="dilate" in="SourceAlpha" result="shadowSpreadOuter1"></feMorphology>
        <feOffset dx="-2" dy="25" in="shadowSpreadOuter1" result="shadowOffsetOuter1"></feOffset>
        <feGaussianBlur stdDeviation="16.5" in="shadowOffsetOuter1" result="shadowBlurOuter1"></feGaussianBlur>
        <feComposite in="shadowBlurOuter1" in2="SourceAlpha" operator="out" result="shadowBlurOuter1"></feComposite>
        <feColorMatrix values="0 0 0 0 0   0 0 0 0 0   0 0 0 0 0  0 0 0 0.122707201 0" type="matrix" in="shadowBlurOuter1" result="shadowMatrixOuter1"></feColorMatrix>
        <feOffset dx="0" dy="1" in="SourceAlpha" result="shadowOffsetOuter2"></feOffset>
        <feGaussianBlur stdDeviation="3.5" in="shadowOffsetOuter2" result="shadowBlurOuter2"></feGaussianBlur>
        <feComposite in="shadowBlurOuter2" in2="SourceAlpha" operator="out" result="shadowBlurOuter2"></feComposite>
        <feColorMatrix values="0 0 0 0 0   0 0 0 0 0   0 0 0 0 0  0 0 0 0.138898324 0" type="matrix" in="shadowBlurOuter2" result="shadowMatrixOuter2"></feColorMatrix>
        <feMerge>
          <feMergeNode in="shadowMatrixOuter1"></feMergeNode>
          <feMergeNode in="shadowMatrixOuter2"></feMergeNode>
        </feMerge>
      </filter>
    </defs>
    <g id="mask-background-1200-690-right" stroke="none" stroke-width="1" fill="none" fill-rule="evenodd">
      <path d="M66,0 L66,690 L-1134,690 L-1134,0 L66,0 Z M-24.4163758,20.0009088 L-1043.58362,20.0009088 C-1057.38993,20.0427006 -1062.48921,21.5250514 -1067.62953,24.2741233 C-1072.84435,27.0630367 -1076.93696,31.1556539 -1079.72588,36.3704687 C-1082.51479,41.5852836 -1084,46.7578634 -1084,61.0221632 L-1083.99909,579.583624 C-1083.9573,593.389933 -1082.47495,598.489214 -1079.72588,603.629531 C-1076.93696,608.844346 -1072.84435,612.936963 -1067.62953,615.725877 C-1062.41472,618.51479 -1057.24214,620 -1042.97784,620 L-1042.97784,620 L-25.0221632,620 C-10.7578634,620 -5.58528356,618.51479 -0.370468743,615.725877 C4.84434607,612.936963 8.93696326,608.844346 11.7258767,603.629531 C14.5147902,598.414716 16,593.242137 16,578.977837 L16,578.977837 L16,61.0221632 C16,46.7578634 14.5147902,41.5852836 11.7258767,36.3704687 C8.93696326,31.1556539 4.84434607,27.0630367 -0.370468743,24.2741233 C-5.58528356,21.4852098 -10.7578634,20 -25.0221632,20 Z" id="background" fill="#FFF0F7"></path>
      <g id="window">
        <use fill="black" fill-opacity="1" filter="url(#filter-2)" xlink:href="#path-1"></use>
        <use fill-opacity="0" fill="#FFFFFF" fill-rule="evenodd" xlink:href="#path-1"></use>
      </g>
    </g>
  </symbol>
  <symbol version="1.1" xmlns="http://www.w3.org/2000/svg" xmlns:xlink="http://www.w3.org/1999/xlink" viewBox="0 0 45 680" id="border-right-video-mobile">
    <title>mask-background-360-680-mobile-right</title>
    <desc>Created with Sketch.</desc>
    <defs>
      <rect id="path-1" x="20" y="18" width="320" height="612" rx="50"></rect>
      <filter x="-12.0%" y="-4.0%" width="124.1%" height="113.1%" filterUnits="objectBoundingBox" id="filter-2">
        <feOffset dx="0" dy="17" in="SourceAlpha" result="shadowOffsetOuter1"></feOffset>
        <feGaussianBlur stdDeviation="10" in="shadowOffsetOuter1" result="shadowBlurOuter1"></feGaussianBlur>
        <feComposite in="shadowBlurOuter1" in2="SourceAlpha" operator="out" result="shadowBlurOuter1"></feComposite>
        <feColorMatrix values="0 0 0 0 0   0 0 0 0 0   0 0 0 0 0  0 0 0 0.122707201 0" type="matrix" in="shadowBlurOuter1" result="shadowMatrixOuter1"></feColorMatrix>
        <feOffset dx="0" dy="1" in="SourceAlpha" result="shadowOffsetOuter2"></feOffset>
        <feGaussianBlur stdDeviation="3.5" in="shadowOffsetOuter2" result="shadowBlurOuter2"></feGaussianBlur>
        <feComposite in="shadowBlurOuter2" in2="SourceAlpha" operator="out" result="shadowBlurOuter2"></feComposite>
        <feColorMatrix values="0 0 0 0 0   0 0 0 0 0   0 0 0 0 0  0 0 0 0.138898324 0" type="matrix" in="shadowBlurOuter2" result="shadowMatrixOuter2"></feColorMatrix>
        <feMerge>
          <feMergeNode in="shadowMatrixOuter1"></feMergeNode>
          <feMergeNode in="shadowMatrixOuter2"></feMergeNode>
        </feMerge>
      </filter>
    </defs>
    <g id="mask-background-360-680-mobile-right" stroke="none" stroke-width="1" fill="none" fill-rule="evenodd">
      <g id="Group" transform="translate(-315.000000, 0.000000)">
        <path d="M360,0 L360,680 L0,680 L0,0 L360,0 Z M290,18 L70,18 C42.3857625,18 20,40.3857625 20,68 L20,68 L20,580 C20,607.614237 42.3857625,630 70,630 L70,630 L290,630 C317.614237,630 340,607.614237 340,580 L340,580 L340,68 C340,40.3857625 317.614237,18 290,18 L290,18 Z" id="Combined-Shape" fill="#FFF0F7"></path>
        <g id="body-copy">
          <use fill="black" fill-opacity="1" filter="url(#filter-2)" xlink:href="#path-1"></use>
          <use fill-opacity="0" fill="#FFFFFF" fill-rule="evenodd" xlink:href="#path-1"></use>
        </g>
      </g>
    </g>
  </symbol>
  <symbol version="1.1" xmlns="http://www.w3.org/2000/svg" xmlns:xlink="http://www.w3.org/1999/xlink" viewBox="0 0 360 43" id="border-top-video-mobile">
    <title>mask-background-360-680-mobile-top</title>
    <desc>Created with Sketch.</desc>
    <defs>
      <rect id="path-1" x="20" y="18" width="320" height="612" rx="50"></rect>
      <filter x="-12.0%" y="-4.0%" width="124.1%" height="113.1%" filterUnits="objectBoundingBox" id="filter-2">
        <feOffset dx="0" dy="17" in="SourceAlpha" result="shadowOffsetOuter1"></feOffset>
        <feGaussianBlur stdDeviation="10" in="shadowOffsetOuter1" result="shadowBlurOuter1"></feGaussianBlur>
        <feComposite in="shadowBlurOuter1" in2="SourceAlpha" operator="out" result="shadowBlurOuter1"></feComposite>
        <feColorMatrix values="0 0 0 0 0   0 0 0 0 0   0 0 0 0 0  0 0 0 0.122707201 0" type="matrix" in="shadowBlurOuter1" result="shadowMatrixOuter1"></feColorMatrix>
        <feOffset dx="0" dy="1" in="SourceAlpha" result="shadowOffsetOuter2"></feOffset>
        <feGaussianBlur stdDeviation="3.5" in="shadowOffsetOuter2" result="shadowBlurOuter2"></feGaussianBlur>
        <feComposite in="shadowBlurOuter2" in2="SourceAlpha" operator="out" result="shadowBlurOuter2"></feComposite>
        <feColorMatrix values="0 0 0 0 0   0 0 0 0 0   0 0 0 0 0  0 0 0 0.138898324 0" type="matrix" in="shadowBlurOuter2" result="shadowMatrixOuter2"></feColorMatrix>
        <feMerge>
          <feMergeNode in="shadowMatrixOuter1"></feMergeNode>
          <feMergeNode in="shadowMatrixOuter2"></feMergeNode>
        </feMerge>
      </filter>
    </defs>
    <g id="mask-background-360-680-mobile-top" stroke="none" stroke-width="1" fill="none" fill-rule="evenodd">
      <path d="M360,0 L360,680 L0,680 L0,0 L360,0 Z M290,18 L70,18 C42.3857625,18 20,40.3857625 20,68 L20,68 L20,580 C20,607.614237 42.3857625,630 70,630 L70,630 L290,630 C317.614237,630 340,607.614237 340,580 L340,580 L340,68 C340,40.3857625 317.614237,18 290,18 L290,18 Z" id="Combined-Shape" fill="#FFF0F7"></path>
      <g id="body-copy">
        <use fill="black" fill-opacity="1" filter="url(#filter-2)" xlink:href="#path-1"></use>
        <use fill-opacity="0" fill="#FFFFFF" fill-rule="evenodd" xlink:href="#path-1"></use>
      </g>
    </g>
  </symbol>
</svg>