<?xml version="1.0" encoding="UTF-8"?>
<svg width="66px" height="690px" viewBox="0 0 66 690" version="1.1" xmlns="http://www.w3.org/2000/svg" xmlns:xlink="http://www.w3.org/1999/xlink">
    <!-- Generator: Sketch 63.1 (92452) - https://sketch.com -->
    <title>mask-background-1200-690-left</title>
    <desc>Created with Sketch.</desc>
    <defs>
        <path d="M91.0221632,20 L1108.97784,20 C1123.24214,20 1128.41472,21.4852098 1133.62953,24.2741233 C1138.84435,27.0630367 1142.93696,31.1556539 1145.72588,36.3704687 C1148.51479,41.5852836 1150,46.7578634 1150,61.0221632 L1150,578.977837 C1150,593.242137 1148.51479,598.414716 1145.72588,603.629531 C1142.93696,608.844346 1138.84435,612.936963 1133.62953,615.725877 C1128.41472,618.51479 1123.24214,620 1108.97784,620 L91.0221632,620 C76.7578634,620 71.5852836,618.51479 66.3704687,615.725877 C61.1556539,612.936963 57.0630367,608.844346 54.2741233,603.629531 C51.4852098,598.414716 50,593.242137 50,578.977837 L50,61.0221632 C50,46.7578634 51.4852098,41.5852836 54.2741233,36.3704687 C57.0630367,31.1556539 61.1556539,27.0630367 66.3704687,24.2741233 C71.5852836,21.4852098 76.7578634,20 91.0221632,20 Z" id="path-1"></path>
        <filter x="-6.0%" y="-6.4%" width="111.5%" height="121.2%" filterUnits="objectBoundingBox" id="filter-2">
            <feMorphology radius="0.5" operator="dilate" in="SourceAlpha" result="shadowSpreadOuter1"></feMorphology>
            <feOffset dx="-2" dy="25" in="shadowSpreadOuter1" result="shadowOffsetOuter1"></feOffset>
            <feGaussianBlur stdDeviation="16.5" in="shadowOffsetOuter1" result="shadowBlurOuter1"></feGaussianBlur>
            <feComposite in="shadowBlurOuter1" in2="SourceAlpha" operator="out" result="shadowBlurOuter1"></feComposite>
            <feColorMatrix values="0 0 0 0 0   0 0 0 0 0   0 0 0 0 0  0 0 0 0.122707201 0" type="matrix" in="shadowBlurOuter1" result="shadowMatrixOuter1"></feColorMatrix>
            <feOffset dx="0" dy="1" in="SourceAlpha" result="shadowOffsetOuter2"></feOffset>
            <feGaussianBlur stdDeviation="3.5" in="shadowOffsetOuter2" result="shadowBlurOuter2"></feGaussianBlur>
            <feComposite in="shadowBlurOuter2" in2="SourceAlpha" operator="out" result="shadowBlurOuter2"></feComposite>
            <feColorMatrix values="0 0 0 0 0   0 0 0 0 0   0 0 0 0 0  0 0 0 0.138898324 0" type="matrix" in="shadowBlurOuter2" result="shadowMatrixOuter2"></feColorMatrix>
            <feMerge>
                <feMergeNode in="shadowMatrixOuter1"></feMergeNode>
                <feMergeNode in="shadowMatrixOuter2"></feMergeNode>
            </feMerge>
        </filter>
    </defs>
    <g id="mask-background-1200-690-left" stroke="none" stroke-width="1" fill="none" fill-rule="evenodd">
        <path d="M1200,0 L1200,690 L0,690 L0,0 L1200,0 Z M1109.58362,20.0009088 L90.4163758,20.0009088 C76.6100667,20.0427006 71.5107862,21.5250514 66.3704687,24.2741233 C61.1556539,27.0630367 57.0630367,31.1556539 54.2741233,36.3704687 C51.4852098,41.5852836 50,46.7578634 50,61.0221632 L50.0009088,579.583624 C50.0427006,593.389933 51.5250514,598.489214 54.2741233,603.629531 C57.0630367,608.844346 61.1556539,612.936963 66.3704687,615.725877 C71.5852836,618.51479 76.7578634,620 91.0221632,620 L91.0221632,620 L1108.97784,620 C1123.24214,620 1128.41472,618.51479 1133.62953,615.725877 C1138.84435,612.936963 1142.93696,608.844346 1145.72588,603.629531 C1148.51479,598.414716 1150,593.242137 1150,578.977837 L1150,578.977837 L1150,61.0221632 C1150,46.7578634 1148.51479,41.5852836 1145.72588,36.3704687 C1142.93696,31.1556539 1138.84435,27.0630367 1133.62953,24.2741233 C1128.41472,21.4852098 1123.24214,20 1108.97784,20 Z" id="background" fill="#FFF0F7"></path>
        <g id="window">
            <use fill="black" fill-opacity="1" filter="url(#filter-2)" xlink:href="#path-1"></use>
            <use fill-opacity="0" fill="#FFFFFF" fill-rule="evenodd" xlink:href="#path-1"></use>
        </g>
    </g>
</svg>