<?xml version="1.0" encoding="UTF-8"?>
<svg width="360px" height="43px" viewBox="0 0 360 43" version="1.1" xmlns="http://www.w3.org/2000/svg" xmlns:xlink="http://www.w3.org/1999/xlink">
    <!-- Generator: Sketch 63.1 (92452) - https://sketch.com -->
    <title>mask-background-360-680-mobile-top</title>
    <desc>Created with Sketch.</desc>
    <defs>
        <rect id="path-1" x="20" y="18" width="320" height="612" rx="50"></rect>
        <filter x="-12.0%" y="-4.0%" width="124.1%" height="113.1%" filterUnits="objectBoundingBox" id="filter-2">
            <feOffset dx="0" dy="17" in="SourceAlpha" result="shadowOffsetOuter1"></feOffset>
            <feGaussianBlur stdDeviation="10" in="shadowOffsetOuter1" result="shadowBlurOuter1"></feGaussianBlur>
            <feComposite in="shadowBlurOuter1" in2="SourceAlpha" operator="out" result="shadowBlurOuter1"></feComposite>
            <feColorMatrix values="0 0 0 0 0   0 0 0 0 0   0 0 0 0 0  0 0 0 0.122707201 0" type="matrix" in="shadowBlurOuter1" result="shadowMatrixOuter1"></feColorMatrix>
            <feOffset dx="0" dy="1" in="SourceAlpha" result="shadowOffsetOuter2"></feOffset>
            <feGaussianBlur stdDeviation="3.5" in="shadowOffsetOuter2" result="shadowBlurOuter2"></feGaussianBlur>
            <feComposite in="shadowBlurOuter2" in2="SourceAlpha" operator="out" result="shadowBlurOuter2"></feComposite>
            <feColorMatrix values="0 0 0 0 0   0 0 0 0 0   0 0 0 0 0  0 0 0 0.138898324 0" type="matrix" in="shadowBlurOuter2" result="shadowMatrixOuter2"></feColorMatrix>
            <feMerge>
                <feMergeNode in="shadowMatrixOuter1"></feMergeNode>
                <feMergeNode in="shadowMatrixOuter2"></feMergeNode>
            </feMerge>
        </filter>
    </defs>
    <g id="mask-background-360-680-mobile-top" stroke="none" stroke-width="1" fill="none" fill-rule="evenodd">
        <path d="M360,0 L360,680 L0,680 L0,0 L360,0 Z M290,18 L70,18 C42.3857625,18 20,40.3857625 20,68 L20,68 L20,580 C20,607.614237 42.3857625,630 70,630 L70,630 L290,630 C317.614237,630 340,607.614237 340,580 L340,580 L340,68 C340,40.3857625 317.614237,18 290,18 L290,18 Z" id="Combined-Shape" fill="#FFF0F7"></path>
        <g id="body-copy">
            <use fill="black" fill-opacity="1" filter="url(#filter-2)" xlink:href="#path-1"></use>
            <use fill-opacity="0" fill="#FFFFFF" fill-rule="evenodd" xlink:href="#path-1"></use>
        </g>
    </g>
</svg>